<?xml version="1.0" encoding="utf-8"?>
<!-- Generator: Adobe Illustrator 17.0.0, SVG Export Plug-In . SVG Version: 6.00 Build 0)  -->
<!DOCTYPE svg PUBLIC "-//W3C//DTD SVG 1.1//EN" "http://www.w3.org/Graphics/SVG/1.1/DTD/svg11.dtd">
<svg version="1.1" id="Capa_1" xmlns="http://www.w3.org/2000/svg" xmlns:xlink="http://www.w3.org/1999/xlink" x="0px" y="0px"
	 width="235px" height="55px" viewBox="0 0 235 55" enable-background="new 0 0 235 55" xml:space="preserve">
<g>
	<path fill-rule="evenodd" clip-rule="evenodd" fill="#FFFFFF" d="M209.378,39.86c0.603-0.352,3.52-2.062,3.924-3.468
		c0.4-1.41,0.302-3.019-2.114-1.812C208.774,35.787,208.774,40.208,209.378,39.86z M178.466,9.533
		c-0.72,0.411-1.75,0.618-1.235,2.263c0.515,1.647,0.31,3.19,1.748,2.675c1.442-0.513,2.37-0.823,2.37-1.85
		c0-1.03,0.41-0.825-1.032-2.677C178.878,8.091,179.186,9.121,178.466,9.533z M148.664,27.902c-1.517,2.028-1.853,2.991-2.08,4.168
		c-0.225,1.179-0.623,3.657,2.305,2.756c1.333-0.41,1.863-0.481,2.285-0.734c0.499-0.302,0.845-0.865,2.225-2.585
		c2.529-3.156,2.816-6.248,1.464-6.248C153.509,25.259,150.18,25.873,148.664,27.902z M112.701,29.292
		c-1.028,2.265-3.683,6.964-7.615,4.528c-2.162-1.338-4.117-4.528-3.293-5.558c0.823-1.028,1.543-2.16,3.395-3.6
		c1.853-1.44,2.16-1.132,2.78,0.205c0.615,1.338,0.308,2.78,2.365,3.602C112.393,29.292,112.701,29.292,112.701,29.292z
		 M111.053,21.676c-2.365,0.205-1.338,3.81,3.19,4.528C114.344,24.663,113.423,21.471,111.053,21.676z M93.25,34.232
		c1.853-1.44,2.058-4.013,1.647-4.735c-0.414-0.72-0.825-1.438-2.78-2.058c-1.955-0.615-3.395-0.515-3.808,0.105
		c-0.412,0.618-1.442,1.336-1.03,2.983c0.412,1.647,0.103,2.575,0.618,3.397c0.515,0.823,0.104,1.543,2.265,1.44
		C92.323,35.262,93.25,34.232,93.25,34.232z M87.692,18.691c0.205-0.41,1.545-3.705,1.545-5.35c0-1.647-2.575-2.78-3.912-1.34
		c-1.338,1.442-1.545,4.735-1.338,5.662c0.205,0.927-0.618,1.645,0.308,2.365c0.927,0.722,1.545,0.412,2.265-0.101
		C87.28,19.412,87.487,19.104,87.692,18.691z M71.739,34.542c2.675-2.06,4.22-2.882,4.22-2.882l1.543-0.72l3.088-3.5
		c0,0,0.31,0,1.44-1.13c1.132-1.132-0.41-2.985-0.618-4.015c-0.205-1.028-1.647-10.289,2.573-13.891
		c4.22-3.602,7.825,0.821,8.03,2.571c0.207,1.75,0.509,7.106-4.737,11.839c-0.41,0.819,0.62,2.466,3.399,1.334
		c2.778-1.132,5.346-3.498,6.891,1.34c2.062,0.203,0.827,1.438,4.224-1.957c3.395-3.398,10.19-8.746,15.44,0.312
		c1.436,0.718,3.701,1.026,4.321,0.203c0.195-0.262,0.245-0.296,0.263-0.34c0.038-0.098-0.078-0.255,0.766-2.85
		c1.231-3.81,3.188-2.06,3.085-1.132c-0.104,0.925,0.103,2.983,2.78,1.132c2.675-1.853,9.261-5.248,9.466,0.103
		c0.209,5.353-0.925,8.028-0.308,9.983s4.818,3.884,6.073,0.618c1.543-4.013,3.102-5.815,6.791-8.645
		c3.09-2.368,9.265-3.615,9.265,1.028c0,3.397,1.85,9.162,2.985,10.19c1.131,1.03,4.116,3.293,7.205-1.748
		c3.085-5.045,3.291-9.88,4.321-12.558c1.03-2.675,3.19-4.837,3.295-2.265c0.101,2.573-2.575,9.265-2.265,10.602
		c0.308,1.336,2.265,4.013,4.323,1.955c2.058-2.058,3.248-3.1,4.115-4.837c1.235-2.47,2.675-1.132,3.5-0.72
		c0.823,0.41,3.293-0.62,2.573,2.573c-0.72,3.19-2.263,8.233,0.72,10.6c2.987,2.367,4.936,4.524,13.066,4.011
		c2.062-0.615,2.166-0.615,2.166-1.438s-0.105-5.145,3.395-8.13c3.5-2.985,10.808-2.573,8.028,2.263
		c-2.778,4.84,1.342,3.291-5.863,7.305c-1.342,1.342-3.599,5.316,5.349,5.56c3.81,0.104,4.632,0.72,6.28-0.72
		c1.645-1.44,2.263-0.72,3.91,1.545c1.646,2.265,2.366,1.748,3.91,2.573c1.543,0.823,4.013,2.058-1.853,1.955
		c-5.868-0.103-12.453,0.823-15.85-1.75c-3.395-2.573-5.865-6.38-7.718-6.588c-1.853-0.205-15.5,3.418-19.143-7.513
		c-0.103-0.308,0.103-5.453-0.515-6.38c-0.618-0.927-0.823-0.618-1.955,0.41c-1.132,1.03-5.558,4.942-8.336,2.782
		c-2.778-2.162-0.412-3.09-2.677-0.207c-2.263,2.882-4.524,10.245-12.041,4.425c-3.19-2.47-4.117-5.043-6.69-2.985
		c-2.573,2.058-0.925,0.825-3.293,2.367c-2.367,1.543-5.968,2.16-6.895-0.31c-0.925-2.47-1.442-2.058-3.5-1.44
		c-2.058,0.618-9.42,0.857-6.998-4.633c3.5-7.923,0.873-9.269-3.705-7.613c-3.705,1.338-4.94,2.058-5.351,4.733
		c-0.414,2.677-0.792,2.092-0.515,3.09c0.515,1.85-2.585,6.264-3.91,1.953c-0.414-1.338,1.235-1.953,1.235-3.705
		c0-1.748-1.625-5.023-3.705-1.748c-1.44,2.263-2.575,9.158-7.72,10.395c-5.145,1.233-6.873-0.37-7.511-1.648
		c-1.03-2.06-2.78-7-4.325-3.5c-1.545,3.5-1.545,3.293-3.5,4.94c-1.955,1.645-5.049,4.713-8.438,0.618
		c-2.47-2.985-1.955-4.94-2.265-6.175c-0.308-1.235-1.545-1.853-2.882-0.618c-1.338,1.235-2.675,2.881-2.675,2.881l-2.058,1.75
		c0,0-3.19,4.325-4.118,5.352c-0.925,1.03-2.675,2.367-2.778,0c-0.105-2.367,0.205-3.293,0.205-3.293S69.064,36.6,71.739,34.542z
		 M9.638,37.491c0.274,4.383,1.836,5.443,4.731,4.075c1.7-0.801,3.621-5.533,4.184-7.623C20.956,25.03,9.201,30.469,9.638,37.491z
		 M17.838,24.851c0-0.268,0.666-3.2,0.666-3.2l4.003-0.801c0,0-3.088,7.891,1.581,12.559c1.132,0,5.268,3.987,7.724-8.291
		c0.265-1.333-1.181-0.734-0.668-1.468c0.933-1.332,3.818-0.933,4.804-0.933c0.984,0,1.517-0.183,2.184,2.134
		c0.666,2.319,1.867,7.171,7.654,2.452c5.785-4.719,5.652-5.97,6.72-9.438c1.066-3.47,2.983-5.839-0.67-5.121
		c-1.732,0.402-5.918-0.213-0.666-3.198c1.736-0.803,5.121-1.336,5.121-1.736c0-0.4-0.05-5.252,4.534-5.519
		c4.586-0.265,2.536,1.601,1.869,2.001c-0.668,0.4-1.869,1.549-1.333,2.001c0.533,0.45,1.118-0.052,1.917,0.265
		c0.801,0.318,1.684,2.585-0.718,3.253c-2.4,0.668-3.2,0.133-4.266,1.201c-1.068,1.066-1.786,2.985-2.587,5.119
		c-0.799,2.134-1.199,4.719-1.199,6.453c0,1.736,2.4,5.204,6.453,1.999c4.051-3.2,4.051-4.451,5.519-5.385
		c1.466-0.933,3.202-0.75,1.599,1.651c-1.599,2.402-3.627,3.687-3.468,5.204c0.668,6.318-15.307,13.223-14.774,2.718
		c-2.188-0.27-1.784-0.133-1.784-0.133s-1.549,1.816-4.801,3.601s-6.771-3.2-7.571-3.601c-0.801-0.402-1.899-1.046-1.869-0.268
		c0.135,3.468-8.637,13.974-12.373,7.121c-0.4,6.453-13.173,20.694-18.693,10.452C2.079,42.477,0.612,30.237,17.838,24.851z"/>
</g>
</svg>
