<?xml version="1.0" encoding="utf-8"?>
<!-- Generator: Adobe Illustrator 22.1.0, SVG Export Plug-In . SVG Version: 6.00 Build 0)  -->
<svg version="1.1" id="Capa_1" xmlns="http://www.w3.org/2000/svg" xmlns:xlink="http://www.w3.org/1999/xlink" x="0px" y="0px"
	 viewBox="0 0 235 55" style="enable-background:new 0 0 235 55;" xml:space="preserve">
<style type="text/css">
	.st0{fill:#001A5A;}
</style>
<g>
	<path class="st0" d="M178.5,9.5c-0.7,0.4-1.8,0.6-1.2,2.3c0.5,1.6,0.3,3.2,1.7,2.7c1.4-0.5,2.4-0.8,2.4-1.9c0-1,0.4-0.8-1-2.7
		C178.9,8.1,179.2,9.1,178.5,9.5z"/>
	<path class="st0" d="M230.7,50.7c-1.5-0.8-2.3-0.3-3.9-2.6c-1.6-2.3-2.3-3-3.9-1.5c-1.6,1.4-2.5,0.8-6.3,0.7
		c-8.9-0.2-6.7-4.2-5.3-5.6c7.2-4,3.1-2.5,5.9-7.3c2.8-4.8-4.5-5.2-8-2.3c-3.5,3-3.4,7.3-3.4,8.1s-0.1,0.8-2.2,1.4
		c-8.1,0.5-10.1-1.6-13.1-4c-3-2.4-1.4-7.4-0.7-10.6c0.7-3.2-1.8-2.2-2.6-2.6c-0.8-0.4-2.3-1.8-3.5,0.7c-0.9,1.7-2.1,2.8-4.1,4.8
		c-2.1,2.1-4-0.6-4.3-2c-0.3-1.3,2.4-8,2.3-10.6c-0.1-2.6-2.3-0.4-3.3,2.3c-1,2.7-1.2,7.5-4.3,12.6c-3.1,5-6.1,2.8-7.2,1.7
		c-1.1-1-3-6.8-3-10.2c0-4.6-6.2-3.4-9.3-1c-3.7,2.8-5.2,4.6-6.8,8.6c-1.3,3.3-5.5,1.3-6.1-0.6c-0.6-2,0.5-4.6,0.3-10
		c-0.2-5.4-6.8-2-9.5-0.1c-2.7,1.9-2.9-0.2-2.8-1.1c0.1-0.9-1.9-2.7-3.1,1.1c-0.8,2.6-0.7,2.8-0.8,2.8c0,0-0.1,0.1-0.3,0.3
		c-0.6,0.8-2.9,0.5-4.3-0.2c-5.3-9.1-12-3.7-15.4-0.3c-3.4,3.4-2.2,2.2-4.2,2c-1.5-4.8-4.1-2.5-6.9-1.3c-2.8,1.1-3.8-0.5-3.4-1.3
		c5.2-4.7,4.9-10.1,4.7-11.8c-0.2-1.8-3.8-6.2-8-2.6c-4.2,3.6-2.8,12.9-2.6,13.9c0.2,1,1.8,2.9,0.6,4c-1.1,1.1-1.4,1.1-1.4,1.1
		l-3.1,3.5L76,31.7c0,0-1.5,0.8-4.2,2.9c-2.7,2.1-2.5,3.7-2.5,3.7s-0.3,0.9-0.2,3.3c0.1,2.4,1.9,1,2.8,0c0.9-1,4.1-5.4,4.1-5.4
		l2.1-1.8c0,0,1.3-1.6,2.7-2.9c1.3-1.2,2.6-0.6,2.9,0.6c0.3,1.2-0.2,3.2,2.3,6.2c3.4,4.1,6.5,1,8.4-0.6c2-1.6,2-1.4,3.5-4.9
		s3.3,1.4,4.3,3.5c0.6,1.3,2.4,2.9,7.5,1.6c5.1-1.2,6.3-8.1,7.7-10.4c2.1-3.3,3.7,0,3.7,1.7c0,1.8-1.6,2.4-1.2,3.7
		c1.3,4.3,4.4-0.1,3.9-2c-0.3-1,0.1-0.4,0.5-3.1c0.4-2.7,1.6-3.4,5.4-4.7c4.6-1.7,7.2-0.3,3.7,7.6c-2.4,5.5,4.9,5.3,7,4.6
		c2.1-0.6,2.6-1,3.5,1.4c0.9,2.5,4.5,1.9,6.9,0.3c2.4-1.5,0.7-0.3,3.3-2.4c2.6-2.1,3.5,0.5,6.7,3c7.5,5.8,9.8-1.5,12-4.4
		c2.3-2.9-0.1-2,2.7,0.2c2.8,2.2,7.2-1.8,8.3-2.8c1.1-1,1.3-1.3,2-0.4c0.6,0.9,0.4,6.1,0.5,6.4c3.6,10.9,17.3,7.3,19.1,7.5
		c1.9,0.2,4.3,4,7.7,6.6c3.4,2.6,10,1.6,15.9,1.8C234.8,52.8,232.3,51.5,230.7,50.7z M84.3,20c-0.9-0.7-0.1-1.4-0.3-2.4
		c-0.2-0.9,0-4.2,1.3-5.7c1.3-1.4,3.9-0.3,3.9,1.3c0,1.6-1.3,4.9-1.5,5.3c-0.2,0.4-0.4,0.7-1.1,1.2C85.8,20.4,85.2,20.8,84.3,20z
		 M93.3,34.2c0,0-0.9,1-3.1,1.1c-2.2,0.1-1.8-0.6-2.3-1.4c-0.5-0.8-0.2-1.8-0.6-3.4c-0.4-1.6,0.6-2.4,1-3c0.4-0.6,1.9-0.7,3.8-0.1
		c2,0.6,2.4,1.3,2.8,2.1C95.3,30.2,95.1,32.8,93.3,34.2z M105.1,33.8c-2.2-1.3-4.1-4.5-3.3-5.6c0.8-1,1.5-2.2,3.4-3.6
		c1.9-1.4,2.2-1.1,2.8,0.2c0.6,1.3,0.3,2.8,2.4,3.6c2.1,0.8,2.4,0.8,2.4,0.8C111.7,31.6,109,36.3,105.1,33.8z M114.2,26.2
		c-4.5-0.7-5.6-4.3-3.2-4.5C113.4,21.5,114.3,24.7,114.2,26.2z M153.4,31.5c-1.4,1.7-1.7,2.3-2.2,2.6c-0.4,0.3-1,0.3-2.3,0.7
		c-2.9,0.9-2.5-1.6-2.3-2.8c0.2-1.2,0.6-2.1,2.1-4.2c1.5-2,4.8-2.6,6.2-2.6C156.2,25.3,155.9,28.4,153.4,31.5z M211.2,34.6
		c2.4-1.2,2.5,0.4,2.1,1.8c-0.4,1.4-3.3,3.1-3.9,3.5C208.8,40.2,208.8,35.8,211.2,34.6z"/>
	<path class="st0" d="M66.5,19.2C65,20.1,65,21.4,61,24.6c-4.1,3.2-6.5-0.3-6.5-2c0-1.7,0.4-4.3,1.2-6.5c0.8-2.1,1.5-4.1,2.6-5.1
		c1.1-1.1,1.9-0.5,4.3-1.2c2.4-0.7,1.5-2.9,0.7-3.3c-0.8-0.3-1.4,0.2-1.9-0.3c-0.5-0.5,0.7-1.6,1.3-2c0.7-0.4,2.7-2.3-1.9-2
		c-4.6,0.3-4.5,5.1-4.5,5.5c0,0.4-3.4,0.9-5.1,1.7c-5.3,3-1.1,3.6,0.7,3.2c3.7-0.7,1.7,1.7,0.7,5.1c-1.1,3.5-0.9,4.7-6.7,9.4
		c-5.8,4.7-7-0.1-7.7-2.5c-0.7-2.3-1.2-2.1-2.2-2.1c-1,0-3.9-0.4-4.8,0.9c-0.5,0.7,0.9,0.1,0.7,1.5c-2.5,12.3-6.6,8.3-7.7,8.3
		c-4.7-4.7-1.6-12.6-1.6-12.6l-4,0.8c0,0-0.7,2.9-0.7,3.2C0.6,30.2,2.1,42.5,2.7,45.9c5.5,10.2,18.3-4,18.7-10.5
		c3.7,6.9,12.5-3.7,12.4-7.1c0-0.8,1.1-0.1,1.9,0.3c0.8,0.4,4.3,5.4,7.6,3.6c3.3-1.8,4.8-3.6,4.8-3.6s-0.4-0.1,1.8,0.1
		c-0.5,10.5,15.4,3.6,14.8-2.7c-0.2-1.5,1.9-2.8,3.5-5.2C69.7,18.4,67.9,18.3,66.5,19.2z M18.6,33.9c-0.6,2.1-2.5,6.8-4.2,7.6
		c-2.9,1.4-4.5,0.3-4.7-4.1C9.2,30.5,21,25,18.6,33.9z"/>
</g>
</svg>
